<svg width="29" height="56" viewBox="0 0 29 56" fill="none" xmlns="http://www.w3.org/2000/svg">
<path d="M1.45013 0.669089C0.61247 1.56121 0.612468 3.00762 1.45012 3.89973L23.7716 27.6725L1.41291 51.4849C0.575254 52.377 0.575254 53.8235 1.41291 54.7156C2.25057 55.6077 3.60867 55.6077 4.44633 54.7156L27.9341 29.7007C28.0904 29.6037 28.2377 29.4838 28.3717 29.3411C29.0883 28.5779 29.1919 27.4091 28.6825 26.5287C28.5896 26.3551 28.4736 26.1917 28.3345 26.0436C28.2675 25.9722 28.1971 25.9065 28.1239 25.8465L4.48355 0.669089C3.64589 -0.223029 2.28778 -0.22303 1.45013 0.669089Z" fill="#DEC163"/>
<path d="M1.45013 0.669089C0.61247 1.56121 0.612468 3.00762 1.45012 3.89973L23.7716 27.6725L1.41291 51.4849C0.575254 52.377 0.575254 53.8235 1.41291 54.7156C2.25057 55.6077 3.60867 55.6077 4.44633 54.7156L27.9341 29.7007C28.0904 29.6037 28.2377 29.4838 28.3717 29.3411C29.0883 28.5779 29.1919 27.4091 28.6825 26.5287C28.5896 26.3551 28.4736 26.1917 28.3345 26.0436C28.2675 25.9722 28.1971 25.9065 28.1239 25.8465L4.48355 0.669089C3.64589 -0.223029 2.28778 -0.22303 1.45013 0.669089Z" fill="url(#paint0_linear)"/>
<defs>
<linearGradient id="paint0_linear" x1="15.1339" y1="10.6154" x2="0.33332" y2="49.5161" gradientUnits="userSpaceOnUse">
<stop stop-color="#F3E077"/>
<stop offset="0.645833" stop-color="#B68623"/>
<stop offset="0.995055" stop-color="#D8A838"/>
</linearGradient>
</defs>
</svg>
