<svg width="24" height="24" viewBox="0 0 24 24" fill="none" xmlns="http://www.w3.org/2000/svg">
<rect x="2.12109" y="0.213196" width="30" height="3" transform="rotate(45 2.12109 0.213196)" fill="#CBAD4D"/>
<rect x="0.121582" y="21.2132" width="30" height="3" transform="rotate(-45 0.121582 21.2132)" fill="#CBAD4D"/>
</svg>
