<svg width="292" height="290" viewBox="0 0 292 290" fill="none" xmlns="http://www.w3.org/2000/svg">
<g opacity="0.6">
<path d="M287.516 145C287.516 223.137 223.948 286.5 145.508 286.5C67.0676 286.5 3.5 223.137 3.5 145C3.5 66.8632 67.0676 3.5 145.508 3.5C223.948 3.5 287.516 66.8632 287.516 145Z" fill="#0C0325"/>
<path d="M287.516 145C287.516 223.137 223.948 286.5 145.508 286.5C67.0676 286.5 3.5 223.137 3.5 145C3.5 66.8632 67.0676 3.5 145.508 3.5C223.948 3.5 287.516 66.8632 287.516 145Z" stroke="#DEC163" stroke-width="7"/>
<path d="M287.516 145C287.516 223.137 223.948 286.5 145.508 286.5C67.0676 286.5 3.5 223.137 3.5 145C3.5 66.8632 67.0676 3.5 145.508 3.5C223.948 3.5 287.516 66.8632 287.516 145Z" stroke="url(#paint0_linear)" stroke-width="7"/>
</g>
<path d="M201.194 144.215C201.528 144.407 201.528 144.889 201.194 145.081L117.501 193.233C117.168 193.424 116.752 193.184 116.752 192.799L116.752 96.4968C116.752 96.1123 117.168 95.8716 117.501 96.0634L201.194 144.215Z" stroke="#DEC163" stroke-width="5"/>
<path d="M201.194 144.215C201.528 144.407 201.528 144.889 201.194 145.081L117.501 193.233C117.168 193.424 116.752 193.184 116.752 192.799L116.752 96.4968C116.752 96.1123 117.168 95.8716 117.501 96.0634L201.194 144.215Z" stroke="url(#paint1_linear)" stroke-width="5"/>
<defs>
<linearGradient id="paint0_linear" x1="148" y1="55.5833" x2="104.582" y2="280.371" gradientUnits="userSpaceOnUse">
<stop stop-color="#F3E077"/>
<stop offset="0.645833" stop-color="#B68623"/>
<stop offset="0.995055" stop-color="#D8A838"/>
</linearGradient>
<linearGradient id="paint1_linear" x1="183.268" y1="145.703" x2="87.5021" y2="127.076" gradientUnits="userSpaceOnUse">
<stop stop-color="#F3E077"/>
<stop offset="0.645833" stop-color="#B68623"/>
<stop offset="0.995055" stop-color="#D8A838"/>
</linearGradient>
</defs>
</svg>
